{
	"info": {
		"_postman_id": "2c8d732b-8891-46ed-97ea-846c2de8c6dc",
		"name": "Payclip",
		"schema": "https://schema.getpostman.com/json/collection/v2.1.0/collection.json"
	},
	"item": [
		{
			"name": "Transactions",
			"item": [
				{
					"name": "addTransaction(Requirement-1)",
					"request": {
						"method": "POST",
						"header": [
							{
								"key": "Content-Type",
								"name": "Content-Type",
								"type": "text",
								"value": "application/json"
							}
						],
						"body": {
							"mode": "raw",
							"raw": "{\n\t\n\t\"description\":\"Transaccion payclip relacionada a la venta 10\",\n\t\"amount\":\"100\",\n\t\"date\":1575957600000\n}\n\n\n\n",
							"options": {
								"raw": {
									"language": "json"
								}
							}
						},
						"url": {
							"raw": "http://{{host_gateway}}:{{port_gateway}}/payclip/transactions/users/5de416d74d142f000132bb72",
							"protocol": "http",
							"host": [
								"{{host_gateway}}"
							],
							"port": "{{port_gateway}}",
							"path": [
								"payclip",
								"transactions",
								"users",
								"5de416d74d142f000132bb72"
							]
						},
						"description": "Payclip assesment requitement-1:\n\nThis feature adds a transaction to the user specified in <user_id> using the information specified in <transaction_data>."
					},
					"response": [
						{
							"name": "addTransaction(Requirement-1)",
							"originalRequest": {
								"method": "POST",
								"header": [
									{
										"key": "Content-Type",
										"name": "Content-Type",
										"type": "text",
										"value": "application/json"
									}
								],
								"body": {
									"mode": "raw",
									"raw": "{\n\t\n\t\"description\":\"Transaccion payclip relacionada a la venta 1\",\n\t\"amount\":\"1200\",\n\t\"date\":1575180000000\n}\n\n\n\n",
									"options": {
										"raw": {
											"language": "json"
										}
									}
								},
								"url": {
									"raw": "http://ad12ca7e913ff11eab56a0a906c8a208-2067301645.us-west-2.elb.amazonaws.com:7001/payclip/transactions/users/5de416d74d142f000132bb72",
									"protocol": "http",
									"host": [
										"ad12ca7e913ff11eab56a0a906c8a208-2067301645",
										"us-west-2",
										"elb",
										"amazonaws",
										"com"
									],
									"port": "7001",
									"path": [
										"payclip",
										"transactions",
										"users",
										"5de416d74d142f000132bb72"
									]
								}
							},
							"status": "OK",
							"code": 200,
							"_postman_previewlanguage": "json",
							"header": [
								{
									"key": "Date",
									"value": "Sun, 01 Dec 2019 19:49:05 GMT"
								},
								{
									"key": "Content-Type",
									"value": "application/json;charset=UTF-8"
								},
								{
									"key": "Transfer-Encoding",
									"value": "chunked"
								}
							],
							"cookie": [],
							"body": "{\n    \"id\": \"5de41931c544f90001edc0f1\",\n    \"description\": \"Transaccion payclip relacionada a la venta 1\",\n    \"amount\": 1200,\n    \"userId\": \"5de416d74d142f000132bb72\",\n    \"date\": \"2019-12-01T06:00:00.000+0000\"\n}"
						}
					]
				},
				{
					"name": "getTransactionByUserId(Requirement-2)",
					"request": {
						"method": "GET",
						"header": [],
						"url": {
							"raw": "http://{{host_gateway}}:{{port_gateway}}/payclip/transactions/5de419b2c544f90001edc0fa/users/5de416d74d142f000132bb72",
							"protocol": "http",
							"host": [
								"{{host_gateway}}"
							],
							"port": "{{port_gateway}}",
							"path": [
								"payclip",
								"transactions",
								"5de419b2c544f90001edc0fa",
								"users",
								"5de416d74d142f000132bb72"
							]
						},
						"description": "Payclip assesment requitement-2:\n\nThis feature returns the transaction specified in the transaction_id.\n\nIf the user_id is not the user_id that corresponds with the user_id for the specified transaction."
					},
					"response": [
						{
							"name": "getTransactionByUserId(Requirement-2)",
							"originalRequest": {
								"method": "GET",
								"header": [],
								"url": {
									"raw": "http://ad12ca7e913ff11eab56a0a906c8a208-2067301645.us-west-2.elb.amazonaws.com:7001payclip/transactions/5de419b2c544f90001edc0fa/users/5de416d74d142f000132bb72",
									"protocol": "http",
									"host": [
										"ad12ca7e913ff11eab56a0a906c8a208-2067301645",
										"us-west-2",
										"elb",
										"amazonaws",
										"com"
									],
									"port": "7001payclip",
									"path": [
										"transactions",
										"5de419b2c544f90001edc0fa",
										"users",
										"5de416d74d142f000132bb72"
									]
								}
							},
							"status": "OK",
							"code": 200,
							"_postman_previewlanguage": "json",
							"header": [
								{
									"key": "Date",
									"value": "Sun, 01 Dec 2019 19:52:19 GMT"
								},
								{
									"key": "Content-Type",
									"value": "application/json;charset=UTF-8"
								},
								{
									"key": "Transfer-Encoding",
									"value": "chunked"
								}
							],
							"cookie": [],
							"body": "{\n    \"id\": \"5de419b2c544f90001edc0fa\",\n    \"description\": \"Transaccion payclip relacionada a la venta 10\",\n    \"amount\": 100,\n    \"userId\": \"5de416d74d142f000132bb72\",\n    \"date\": \"2019-12-10T06:00:00.000+0000\"\n}"
						}
					]
				},
				{
					"name": "getAllTransactionsByUserId(Requirement-3)",
					"request": {
						"method": "GET",
						"header": [],
						"url": {
							"raw": "http://{{host_gateway}}:{{port_gateway}}/payclip/transactions/users/5de416d74d142f000132bb72",
							"protocol": "http",
							"host": [
								"{{host_gateway}}"
							],
							"port": "{{port_gateway}}",
							"path": [
								"payclip",
								"transactions",
								"users",
								"5de416d74d142f000132bb72"
							]
						},
						"description": "Payclip assesment requitement-3:\n\nThis feature prints all the transactions associated with the user specified by user_id. The transactions should be in chronological order.\n\nIf the user_id does not exist, then the response should return an empty list"
					},
					"response": [
						{
							"name": "getAllTransactionsByUserId(Requirement-3)",
							"originalRequest": {
								"method": "GET",
								"header": [],
								"url": {
									"raw": "http://ad12ca7e913ff11eab56a0a906c8a208-2067301645.us-west-2.elb.amazonaws.com:7001/payclip/transactions/users/5de416d74d142f000132bb72",
									"protocol": "http",
									"host": [
										"ad12ca7e913ff11eab56a0a906c8a208-2067301645",
										"us-west-2",
										"elb",
										"amazonaws",
										"com"
									],
									"port": "7001",
									"path": [
										"payclip",
										"transactions",
										"users",
										"5de416d74d142f000132bb72"
									]
								}
							},
							"status": "OK",
							"code": 200,
							"_postman_previewlanguage": "json",
							"header": [
								{
									"key": "Date",
									"value": "Sun, 01 Dec 2019 19:53:47 GMT"
								},
								{
									"key": "Content-Type",
									"value": "application/json;charset=UTF-8"
								},
								{
									"key": "Transfer-Encoding",
									"value": "chunked"
								}
							],
							"cookie": [],
							"body": "[\n    {\n        \"id\": \"5de41931c544f90001edc0f1\",\n        \"description\": \"Transaccion payclip relacionada a la venta 1\",\n        \"amount\": 1200,\n        \"userId\": \"5de416d74d142f000132bb72\",\n        \"date\": \"2019-12-01T06:00:00.000+0000\"\n    },\n    {\n        \"id\": \"5de4196ac544f90001edc0f2\",\n        \"description\": \"Transaccion payclip relacionada a la venta 2\",\n        \"amount\": 100,\n        \"userId\": \"5de416d74d142f000132bb72\",\n        \"date\": \"2019-12-02T06:00:00.000+0000\"\n    },\n    {\n        \"id\": \"5de41976c544f90001edc0f3\",\n        \"description\": \"Transaccion payclip relacionada a la venta 3\",\n        \"amount\": 100,\n        \"userId\": \"5de416d74d142f000132bb72\",\n        \"date\": \"2019-12-03T06:00:00.000+0000\"\n    },\n    {\n        \"id\": \"5de4197ec544f90001edc0f4\",\n        \"description\": \"Transaccion payclip relacionada a la venta 4\",\n        \"amount\": 100,\n        \"userId\": \"5de416d74d142f000132bb72\",\n        \"date\": \"2019-12-04T06:00:00.000+0000\"\n    },\n    {\n        \"id\": \"5de41988c544f90001edc0f5\",\n        \"description\": \"Transaccion payclip relacionada a la venta 5\",\n        \"amount\": 100,\n        \"userId\": \"5de416d74d142f000132bb72\",\n        \"date\": \"2019-12-05T06:00:00.000+0000\"\n    },\n    {\n        \"id\": \"5de41991c544f90001edc0f6\",\n        \"description\": \"Transaccion payclip relacionada a la venta 6\",\n        \"amount\": 100,\n        \"userId\": \"5de416d74d142f000132bb72\",\n        \"date\": \"2019-12-06T06:00:00.000+0000\"\n    },\n    {\n        \"id\": \"5de4199ac544f90001edc0f7\",\n        \"description\": \"Transaccion payclip relacionada a la venta 7\",\n        \"amount\": 100,\n        \"userId\": \"5de416d74d142f000132bb72\",\n        \"date\": \"2019-12-07T06:00:00.000+0000\"\n    },\n    {\n        \"id\": \"5de419a2c544f90001edc0f8\",\n        \"description\": \"Transaccion payclip relacionada a la venta 8\",\n        \"amount\": 100,\n        \"userId\": \"5de416d74d142f000132bb72\",\n        \"date\": \"2019-12-08T06:00:00.000+0000\"\n    },\n    {\n        \"id\": \"5de419aac544f90001edc0f9\",\n        \"description\": \"Transaccion payclip relacionada a la venta 9\",\n        \"amount\": 100,\n        \"userId\": \"5de416d74d142f000132bb72\",\n        \"date\": \"2019-12-09T06:00:00.000+0000\"\n    },\n    {\n        \"id\": \"5de419b2c544f90001edc0fa\",\n        \"description\": \"Transaccion payclip relacionada a la venta 10\",\n        \"amount\": 100,\n        \"userId\": \"5de416d74d142f000132bb72\",\n        \"date\": \"2019-12-10T06:00:00.000+0000\"\n    }\n]"
						}
					]
				},
				{
					"name": "sumTransactionsByUserId(Requirement-4)",
					"request": {
						"method": "GET",
						"header": [],
						"url": {
							"raw": "http://{{host_gateway}}:{{port_gateway}}/payclip/transactions/users/5de416d74d142f000132bb72/sum",
							"protocol": "http",
							"host": [
								"{{host_gateway}}"
							],
							"port": "{{port_gateway}}",
							"path": [
								"payclip",
								"transactions",
								"users",
								"5de416d74d142f000132bb72",
								"sum"
							]
						},
						"description": "Payclip assessment requirement4 \n\nThis command sums all the transactions associated with the user specified by user_id.\n\n"
					},
					"response": [
						{
							"name": "sumTransactionsByUserId(Requirement-4)",
							"originalRequest": {
								"method": "GET",
								"header": [],
								"url": {
									"raw": "http://ad12ca7e913ff11eab56a0a906c8a208-2067301645.us-west-2.elb.amazonaws.com:7001/payclip/transactions/users/5de416d74d142f000132bb72/sum",
									"protocol": "http",
									"host": [
										"ad12ca7e913ff11eab56a0a906c8a208-2067301645",
										"us-west-2",
										"elb",
										"amazonaws",
										"com"
									],
									"port": "7001",
									"path": [
										"payclip",
										"transactions",
										"users",
										"5de416d74d142f000132bb72",
										"sum"
									]
								}
							},
							"status": "OK",
							"code": 200,
							"_postman_previewlanguage": "json",
							"header": [
								{
									"key": "Date",
									"value": "Sun, 01 Dec 2019 19:54:56 GMT"
								},
								{
									"key": "Content-Type",
									"value": "application/json;charset=UTF-8"
								},
								{
									"key": "Transfer-Encoding",
									"value": "chunked"
								}
							],
							"cookie": [],
							"body": "{\n    \"userId\": \"5de416d74d142f000132bb72\",\n    \"sum\": 2100\n}"
						},
						{
							"name": "sumTransactionsByUserId(Requirement-4)",
							"originalRequest": {
								"method": "GET",
								"header": [],
								"url": {
									"raw": "http://ad12ca7e913ff11eab56a0a906c8a208-2067301645.us-west-2.elb.amazonaws.com:7001/payclip/transactions/users/5de416d74d142f000132bb72/sum",
									"protocol": "http",
									"host": [
										"ad12ca7e913ff11eab56a0a906c8a208-2067301645",
										"us-west-2",
										"elb",
										"amazonaws",
										"com"
									],
									"port": "7001",
									"path": [
										"payclip",
										"transactions",
										"users",
										"5de416d74d142f000132bb72",
										"sum"
									]
								}
							},
							"status": "OK",
							"code": 200,
							"_postman_previewlanguage": "json",
							"header": [
								{
									"key": "Date",
									"value": "Sun, 01 Dec 2019 19:54:56 GMT"
								},
								{
									"key": "Content-Type",
									"value": "application/json;charset=UTF-8"
								},
								{
									"key": "Transfer-Encoding",
									"value": "chunked"
								}
							],
							"cookie": [],
							"body": "{\n    \"userId\": \"5de416d74d142f000132bb72\",\n    \"sum\": 2100\n}"
						},
						{
							"name": "sumTransactionsByUserId(Requirement-4)",
							"originalRequest": {
								"method": "GET",
								"header": [],
								"url": {
									"raw": "http://ad12ca7e913ff11eab56a0a906c8a208-2067301645.us-west-2.elb.amazonaws.com:7001/payclip/transactions/users/5de416d74d142f000132bb72/sum",
									"protocol": "http",
									"host": [
										"ad12ca7e913ff11eab56a0a906c8a208-2067301645",
										"us-west-2",
										"elb",
										"amazonaws",
										"com"
									],
									"port": "7001",
									"path": [
										"payclip",
										"transactions",
										"users",
										"5de416d74d142f000132bb72",
										"sum"
									]
								}
							},
							"status": "OK",
							"code": 200,
							"_postman_previewlanguage": "json",
							"header": [
								{
									"key": "Date",
									"value": "Sun, 01 Dec 2019 19:54:56 GMT"
								},
								{
									"key": "Content-Type",
									"value": "application/json;charset=UTF-8"
								},
								{
									"key": "Transfer-Encoding",
									"value": "chunked"
								}
							],
							"cookie": [],
							"body": "{\n    \"userId\": \"5de416d74d142f000132bb72\",\n    \"sum\": 2100\n}"
						},
						{
							"name": "sumTransactionsByUserId(Requirement-4)",
							"originalRequest": {
								"method": "GET",
								"header": [],
								"url": {
									"raw": "http://ad12ca7e913ff11eab56a0a906c8a208-2067301645.us-west-2.elb.amazonaws.com:7001/payclip/transactions/users/5de416d74d142f000132bb72/sum",
									"protocol": "http",
									"host": [
										"ad12ca7e913ff11eab56a0a906c8a208-2067301645",
										"us-west-2",
										"elb",
										"amazonaws",
										"com"
									],
									"port": "7001",
									"path": [
										"payclip",
										"transactions",
										"users",
										"5de416d74d142f000132bb72",
										"sum"
									]
								}
							},
							"status": "OK",
							"code": 200,
							"_postman_previewlanguage": "json",
							"header": [
								{
									"key": "Date",
									"value": "Sun, 01 Dec 2019 19:54:56 GMT"
								},
								{
									"key": "Content-Type",
									"value": "application/json;charset=UTF-8"
								},
								{
									"key": "Transfer-Encoding",
									"value": "chunked"
								}
							],
							"cookie": [],
							"body": "{\n    \"userId\": \"5de416d74d142f000132bb72\",\n    \"sum\": 2100\n}"
						}
					]
				},
				{
					"name": "reportByUserId(Requirement-5)",
					"request": {
						"method": "GET",
						"header": [],
						"url": {
							"raw": "http://{{host_gateway}}:{{port_gateway}}/payclip/transactions/users/5de416d74d142f000132bb72/report",
							"protocol": "http",
							"host": [
								"{{host_gateway}}"
							],
							"port": "{{port_gateway}}",
							"path": [
								"payclip",
								"transactions",
								"users",
								"5de416d74d142f000132bb72",
								"report"
							]
						},
						"description": "Payclip assessment requirement-5 \n\n\nThis command returns all transactions accumulated by week, where the week starts on Friday and finishes on Thursday. Also, if it is the first day of the month, it should start the next week"
					},
					"response": [
						{
							"name": "reportByUserId(Requirement-5)",
							"originalRequest": {
								"method": "GET",
								"header": [],
								"url": {
									"raw": "http://ad12ca7e913ff11eab56a0a906c8a208-2067301645.us-west-2.elb.amazonaws.com:7001/payclip/transactions/users/5de416d74d142f000132bb72/report",
									"protocol": "http",
									"host": [
										"ad12ca7e913ff11eab56a0a906c8a208-2067301645",
										"us-west-2",
										"elb",
										"amazonaws",
										"com"
									],
									"port": "7001",
									"path": [
										"payclip",
										"transactions",
										"users",
										"5de416d74d142f000132bb72",
										"report"
									]
								}
							},
							"status": "OK",
							"code": 200,
							"_postman_previewlanguage": "json",
							"header": [
								{
									"key": "Date",
									"value": "Sun, 01 Dec 2019 19:55:54 GMT"
								},
								{
									"key": "Content-Type",
									"value": "application/json;charset=UTF-8"
								},
								{
									"key": "Transfer-Encoding",
									"value": "chunked"
								}
							],
							"cookie": [],
							"body": "[\n    {\n        \"userId\": \"5de416d74d142f000132bb72\",\n        \"weekStartDate\": \"2019-12-01T00:00:00.000+0000\",\n        \"weekEndDate\": \"2019-12-05T00:00:00.000+0000\",\n        \"quantity\": 5,\n        \"amount\": 1600,\n        \"totalAmount\": 0\n    },\n    {\n        \"userId\": \"5de416d74d142f000132bb72\",\n        \"weekStartDate\": \"2019-12-06T00:00:00.000+0000\",\n        \"weekEndDate\": \"2019-12-12T00:00:00.000+0000\",\n        \"quantity\": 5,\n        \"amount\": 500,\n        \"totalAmount\": 1600\n    }\n]"
						}
					]
				},
				{
					"name": "randomTransaction(Requirement-6)",
					"request": {
						"method": "GET",
						"header": [],
						"url": {
							"raw": "http://{{host_gateway}}:{{port_gateway}}/payclip/transactions/random/",
							"protocol": "http",
							"host": [
								"{{host_gateway}}"
							],
							"port": "{{port_gateway}}",
							"path": [
								"payclip",
								"transactions",
								"random",
								""
							]
						},
						"description": "Payclip assessment requirement-6\nThis command returns one transaction in a randmon way"
					},
					"response": [
						{
							"name": "randomTransaction(Requirement-6)",
							"originalRequest": {
								"method": "GET",
								"header": [],
								"url": {
									"raw": "http://{{host_gateway}}:{{port_gateway}}/payclip/transactions/random/",
									"protocol": "http",
									"host": [
										"{{host_gateway}}"
									],
									"port": "{{port_gateway}}",
									"path": [
										"payclip",
										"transactions",
										"random",
										""
									]
								}
							},
							"status": "OK",
							"code": 200,
							"_postman_previewlanguage": "json",
							"header": [
								{
									"key": "Date",
									"value": "Sun, 01 Dec 2019 21:18:44 GMT"
								},
								{
									"key": "Content-Type",
									"value": "application/json;charset=UTF-8"
								},
								{
									"key": "Transfer-Encoding",
									"value": "chunked"
								}
							],
							"cookie": [],
							"body": "{\n    \"id\": \"5de419aac544f90001edc0f9\",\n    \"description\": \"Transaccion payclip relacionada a la venta 9\",\n    \"amount\": 100,\n    \"userId\": \"5de416d74d142f000132bb72\",\n    \"date\": \"2019-12-09T06:00:00.000+0000\"\n}"
						}
					]
				},
				{
					"name": "createTransaction (CRUD)",
					"request": {
						"method": "POST",
						"header": [
							{
								"key": "Content-Type",
								"name": "Content-Type",
								"value": "application/json",
								"type": "text"
							}
						],
						"body": {
							"mode": "raw",
							"raw": "{\n\t\n\t\"description\":\"Esta es una transaccion de prueba\",\n\t\"amount\":\"2789.3\",\n\t\"date\":1574863360297\n}\n\n\n\n",
							"options": {
								"raw": {
									"language": "json"
								}
							}
						},
						"url": {
							"raw": "http://{{host_gateway}}:{{port_gateway}}/payclip/transactions/",
							"protocol": "http",
							"host": [
								"{{host_gateway}}"
							],
							"port": "{{port_gateway}}",
							"path": [
								"payclip",
								"transactions",
								""
							]
						},
						"description": "Create a transaction"
					},
					"response": []
				},
				{
					"name": "getTransactionById (CRUD)",
					"request": {
						"method": "GET",
						"header": [],
						"url": {
							"raw": "http://{{host_gateway}}:{{port_gateway}}/payclip/transactions/5dde882c8ee42b4e7c45715d",
							"protocol": "http",
							"host": [
								"{{host_gateway}}"
							],
							"port": "{{port_gateway}}",
							"path": [
								"payclip",
								"transactions",
								"5dde882c8ee42b4e7c45715d"
							]
						},
						"description": "Get the transactrion based on the id"
					},
					"response": []
				},
				{
					"name": "getAllTransactions (CRUD)",
					"request": {
						"method": "GET",
						"header": [],
						"url": {
							"raw": "http://{{host_gateway}}:{{port_gateway}}/payclip/transactions/",
							"protocol": "http",
							"host": [
								"{{host_gateway}}"
							],
							"port": "{{port_gateway}}",
							"path": [
								"payclip",
								"transactions",
								""
							]
						},
						"description": "Gel all transactions from database"
					},
					"response": []
				},
				{
					"name": "updateTransaction (CRUD)",
					"request": {
						"method": "PUT",
						"header": [
							{
								"key": "Content-Type",
								"name": "Content-Type",
								"type": "text",
								"value": "application/json"
							}
						],
						"body": {
							"mode": "raw",
							"raw": "{\n\t\n\t\"description\":\"Esta es una transaccion de prueba\",\n\t\"amount\":\"2789.2\",\n\t\"date\":1574863360297\n}\n\n\n\n",
							"options": {
								"raw": {
									"language": "json"
								}
							}
						},
						"url": {
							"raw": "http://{{host_gateway}}:{{port_gateway}}/payclip/transactions/8080/5dde882c8ee42b4e7c45715d",
							"protocol": "http",
							"host": [
								"{{host_gateway}}"
							],
							"port": "{{port_gateway}}",
							"path": [
								"payclip",
								"transactions",
								"8080",
								"5dde882c8ee42b4e7c45715d"
							]
						},
						"description": "Update a transaction based on the transactionId"
					},
					"response": []
				},
				{
					"name": "deleteTransaction (CRUD",
					"request": {
						"method": "DELETE",
						"header": [
							{
								"key": "Content-Type",
								"name": "Content-Type",
								"type": "text",
								"value": "application/json"
							}
						],
						"url": {
							"raw": "http://{{host_gateway}}:{{port_gateway}}/payclip/transactions/5de15aae8b87bc000183a44f",
							"protocol": "http",
							"host": [
								"{{host_gateway}}"
							],
							"port": "{{port_gateway}}",
							"path": [
								"payclip",
								"transactions",
								"5de15aae8b87bc000183a44f"
							]
						},
						"description": "Delete a transaction based on the id"
					},
					"response": []
				}
			],
			"protocolProfileBehavior": []
		},
		{
			"name": "Users",
			"item": [
				{
					"name": "createUsersClip (CRUD)",
					"request": {
						"method": "POST",
						"header": [
							{
								"key": "Content-Type",
								"name": "Content-Type",
								"value": "application/json",
								"type": "text"
							}
						],
						"body": {
							"mode": "raw",
							"raw": "{\n    \"firstName\": \"Carla Jacqueline\",\n    \"lastName\": \"Velazquez\",\n    \"age\": 2,\n    \"occupation\": \"kid\"\n}",
							"options": {
								"raw": {
									"language": "json"
								}
							}
						},
						"url": {
							"raw": "http://{{host_gateway}}:{{port_gateway}}/payclip/users/",
							"protocol": "http",
							"host": [
								"{{host_gateway}}"
							],
							"port": "{{port_gateway}}",
							"path": [
								"payclip",
								"users",
								""
							]
						},
						"description": "Create user"
					},
					"response": [
						{
							"name": "createUsersClip",
							"originalRequest": {
								"method": "POST",
								"header": [
									{
										"key": "Content-Type",
										"name": "Content-Type",
										"value": "application/json",
										"type": "text"
									}
								],
								"body": {
									"mode": "raw",
									"raw": "{\n    \"firstName\": \"Carla Jacqueline\",\n    \"lastName\": \"Velazquez\",\n    \"age\": 2,\n    \"occupation\": \"kid\"\n}",
									"options": {
										"raw": {
											"language": "json"
										}
									}
								},
								"url": {
									"raw": "http://ad12ca7e913ff11eab56a0a906c8a208-2067301645.us-west-2.elb.amazonaws.com:7001/payclip/users/",
									"protocol": "http",
									"host": [
										"ad12ca7e913ff11eab56a0a906c8a208-2067301645",
										"us-west-2",
										"elb",
										"amazonaws",
										"com"
									],
									"port": "7001",
									"path": [
										"payclip",
										"users",
										""
									]
								}
							},
							"status": "OK",
							"code": 200,
							"_postman_previewlanguage": "json",
							"header": [
								{
									"key": "Date",
									"value": "Sun, 01 Dec 2019 19:20:09 GMT"
								},
								{
									"key": "Content-Type",
									"value": "application/json;charset=UTF-8"
								},
								{
									"key": "Transfer-Encoding",
									"value": "chunked"
								}
							],
							"cookie": [],
							"body": "{\n    \"id\": \"5de41268ca217b0001498cb8\",\n    \"firstName\": \"Carla Jacqueline\",\n    \"lastName\": \"Velazquez\",\n    \"age\": 2,\n    \"occupation\": \"kid\"\n}"
						}
					]
				},
				{
					"name": "getUsersClip (CRUD)",
					"request": {
						"method": "GET",
						"header": [],
						"url": {
							"raw": "http://{{host_gateway}}:{{port_gateway}}/payclip/users/",
							"protocol": "http",
							"host": [
								"{{host_gateway}}"
							],
							"port": "{{port_gateway}}",
							"path": [
								"payclip",
								"users",
								""
							]
						},
						"description": "Get all the users "
					},
					"response": [
						{
							"name": "getUsersClip",
							"originalRequest": {
								"method": "GET",
								"header": [],
								"url": {
									"raw": "http://ad12ca7e913ff11eab56a0a906c8a208-2067301645.us-west-2.elb.amazonaws.com:7001/payclip/users/",
									"protocol": "http",
									"host": [
										"ad12ca7e913ff11eab56a0a906c8a208-2067301645",
										"us-west-2",
										"elb",
										"amazonaws",
										"com"
									],
									"port": "7001",
									"path": [
										"payclip",
										"users",
										""
									]
								}
							},
							"status": "OK",
							"code": 200,
							"_postman_previewlanguage": "json",
							"header": [
								{
									"key": "Date",
									"value": "Sun, 01 Dec 2019 19:20:53 GMT"
								},
								{
									"key": "Content-Type",
									"value": "application/json;charset=UTF-8"
								},
								{
									"key": "Transfer-Encoding",
									"value": "chunked"
								}
							],
							"cookie": [],
							"body": "{\n    \"content\": [\n        {\n            \"id\": \"5de41268ca217b0001498cb8\",\n            \"firstName\": \"Carla Jacqueline\",\n            \"lastName\": \"Velazquez\",\n            \"age\": 2,\n            \"occupation\": \"kid\",\n            \"transactions\": []\n        }\n    ],\n    \"pageable\": {\n        \"sort\": {\n            \"sorted\": false,\n            \"unsorted\": true\n        },\n        \"pageSize\": 20,\n        \"pageNumber\": 0,\n        \"offset\": 0,\n        \"unpaged\": false,\n        \"paged\": true\n    },\n    \"totalPages\": 1,\n    \"last\": true,\n    \"totalElements\": 1,\n    \"first\": true,\n    \"sort\": {\n        \"sorted\": false,\n        \"unsorted\": true\n    },\n    \"numberOfElements\": 1,\n    \"size\": 20,\n    \"number\": 0\n}"
						}
					]
				},
				{
					"name": "getUsersClipById (CRUD)",
					"request": {
						"method": "GET",
						"header": [],
						"url": {
							"raw": "http://{{host_gateway}}:{{port_gateway}}/payclip/users/5ddf5d44b3cb1f00014270af",
							"protocol": "http",
							"host": [
								"{{host_gateway}}"
							],
							"port": "{{port_gateway}}",
							"path": [
								"payclip",
								"users",
								"5ddf5d44b3cb1f00014270af"
							]
						},
						"description": "Get user by userId"
					},
					"response": [
						{
							"name": "getUsersClipById",
							"originalRequest": {
								"method": "GET",
								"header": [],
								"url": {
									"raw": "http://ad12ca7e913ff11eab56a0a906c8a208-2067301645.us-west-2.elb.amazonaws.com:7001/payclip/users/5de416d74d142f000132bb72",
									"protocol": "http",
									"host": [
										"ad12ca7e913ff11eab56a0a906c8a208-2067301645",
										"us-west-2",
										"elb",
										"amazonaws",
										"com"
									],
									"port": "7001",
									"path": [
										"payclip",
										"users",
										"5de416d74d142f000132bb72"
									]
								}
							},
							"status": "OK",
							"code": 200,
							"_postman_previewlanguage": "json",
							"header": [
								{
									"key": "Date",
									"value": "Sun, 01 Dec 2019 19:40:45 GMT"
								},
								{
									"key": "Content-Type",
									"value": "application/json;charset=UTF-8"
								},
								{
									"key": "Transfer-Encoding",
									"value": "chunked"
								}
							],
							"cookie": [],
							"body": "{\n    \"id\": \"5de416d74d142f000132bb72\",\n    \"firstName\": \"Carla Jacqueline\",\n    \"lastName\": \"Velazquez\",\n    \"age\": 2,\n    \"occupation\": \"kid\",\n    \"transactions\": []\n}"
						}
					]
				},
				{
					"name": "updateUsersClip (CRUD)",
					"request": {
						"method": "PUT",
						"header": [
							{
								"key": "Content-Type",
								"name": "Content-Type",
								"type": "text",
								"value": "application/json"
							}
						],
						"body": {
							"mode": "raw",
							"raw": "{\n\t\n\t\"firstName\":\"Carla\",\n\t\"lastName\":\"Velazquez Arango\",\n\t\"age\":2,\n\t\"occupation\":\"kid\"\n}\n\n",
							"options": {
								"raw": {
									"language": "json"
								}
							}
						},
						"url": {
							"raw": "http://{{host_gateway}}:{{port_gateway}}/payclip/users/5de416d74d142f000132bb72",
							"protocol": "http",
							"host": [
								"{{host_gateway}}"
							],
							"port": "{{port_gateway}}",
							"path": [
								"payclip",
								"users",
								"5de416d74d142f000132bb72"
							]
						},
						"description": "Update user based on the userId"
					},
					"response": [
						{
							"name": "updateUsersClip",
							"originalRequest": {
								"method": "PUT",
								"header": [
									{
										"key": "Content-Type",
										"name": "Content-Type",
										"type": "text",
										"value": "application/json"
									}
								],
								"body": {
									"mode": "raw",
									"raw": "{\n\t\n\t\"firstName\":\"Carla\",\n\t\"lastName\":\"Velazquez Arango\",\n\t\"age\":2,\n\t\"occupation\":\"kid\"\n}\n\n",
									"options": {
										"raw": {
											"language": "json"
										}
									}
								},
								"url": {
									"raw": "http://ad12ca7e913ff11eab56a0a906c8a208-2067301645.us-west-2.elb.amazonaws.com:7001/payclip/users/5de416d74d142f000132bb72",
									"protocol": "http",
									"host": [
										"ad12ca7e913ff11eab56a0a906c8a208-2067301645",
										"us-west-2",
										"elb",
										"amazonaws",
										"com"
									],
									"port": "7001",
									"path": [
										"payclip",
										"users",
										"5de416d74d142f000132bb72"
									]
								}
							},
							"status": "OK",
							"code": 200,
							"_postman_previewlanguage": "json",
							"header": [
								{
									"key": "Date",
									"value": "Sun, 01 Dec 2019 19:43:33 GMT"
								},
								{
									"key": "Content-Type",
									"value": "application/json;charset=UTF-8"
								},
								{
									"key": "Transfer-Encoding",
									"value": "chunked"
								}
							],
							"cookie": [],
							"body": "{\n    \"id\": \"5de416d74d142f000132bb72\",\n    \"firstName\": \"Carla\",\n    \"lastName\": \"Velazquez Arango\",\n    \"age\": 2,\n    \"occupation\": \"kid\",\n    \"transactions\": []\n}"
						}
					]
				},
				{
					"name": "deleteUsersClip (CRUD)",
					"request": {
						"method": "DELETE",
						"header": [
							{
								"key": "Content-Type",
								"name": "Content-Type",
								"type": "text",
								"value": "application/json"
							}
						],
						"url": {
							"raw": "http://{{host_gateway}}:{{port_gateway}}/payclip/users/5ddf461e02ae380001bc1d6d",
							"protocol": "http",
							"host": [
								"{{host_gateway}}"
							],
							"port": "{{port_gateway}}",
							"path": [
								"payclip",
								"users",
								"5ddf461e02ae380001bc1d6d"
							]
						},
						"description": "Delete user by usedIr"
					},
					"response": [
						{
							"name": "deleteUsersClip",
							"originalRequest": {
								"method": "DELETE",
								"header": [
									{
										"key": "Content-Type",
										"name": "Content-Type",
										"type": "text",
										"value": "application/json"
									}
								],
								"url": {
									"raw": "http://{{host_gateway}}:{{port_gateway}}/payclip/users/5de416d74d142f000132bb72",
									"protocol": "http",
									"host": [
										"{{host_gateway}}"
									],
									"port": "{{port_gateway}}",
									"path": [
										"payclip",
										"users",
										"5de416d74d142f000132bb72"
									]
								}
							},
							"_postman_previewlanguage": "",
							"header": [],
							"cookie": [],
							"body": ""
						}
					]
				}
			],
			"protocolProfileBehavior": []
		}
	],
	"protocolProfileBehavior": []
}